;FLAVOR:Marlin
G28 ; Home all axes

; the print head moves to the left front corner of the print surface
; the print head is moved slowly until it almost reaches the print surface
; probably stopped by the z switch
